<?xml version="1.0" encoding="UTF-8" standalone="no"?>
<!-- Created with Inkscape (http://www.inkscape.org/) -->

<svg
   xmlns:dc="http://purl.org/dc/elements/1.1/"
   xmlns:cc="http://creativecommons.org/ns#"
   xmlns:rdf="http://www.w3.org/1999/02/22-rdf-syntax-ns#"
   xmlns:svg="http://www.w3.org/2000/svg"
   xmlns="http://www.w3.org/2000/svg"
   xmlns:sodipodi="http://sodipodi.sourceforge.net/DTD/sodipodi-0.dtd"
   xmlns:inkscape="http://www.inkscape.org/namespaces/inkscape"
   width="256"
   height="256"
   id="svg2"
   version="1.1"
   inkscape:version="0.48.4 r9939"
   sodipodi:docname="bootpanel.svg"
   inkscape:export-filename="C:\wamp\www\bootpanel\app\webroot\img\branding\bootpanel.png"
   inkscape:export-xdpi="89.989998"
   inkscape:export-ydpi="89.989998">
  <defs
     id="defs4" />
  <sodipodi:namedview
     id="base"
     pagecolor="#ffffff"
     bordercolor="#666666"
     borderopacity="1.0"
     inkscape:pageopacity="0.0"
     inkscape:pageshadow="2"
     inkscape:zoom="0.24748738"
     inkscape:cx="1.2086646"
     inkscape:cy="-118.14931"
     inkscape:document-units="px"
     inkscape:current-layer="layer1"
     showgrid="false"
     inkscape:window-width="1680"
     inkscape:window-height="1028"
     inkscape:window-x="-8"
     inkscape:window-y="-8"
     inkscape:window-maximized="1" />
  <metadata
     id="metadata7">
    <rdf:RDF>
      <cc:Work
         rdf:about="">
        <dc:format>image/svg+xml</dc:format>
        <dc:type
           rdf:resource="http://purl.org/dc/dcmitype/StillImage" />
        <dc:title></dc:title>
      </cc:Work>
    </rdf:RDF>
  </metadata>
  <g
     inkscape:label="Capa 1"
     inkscape:groupmode="layer"
     id="layer1"
     transform="translate(0,-796.36218)">
    <g
       id="g3854"
       transform="matrix(0.31344329,0,0,0.31344329,-1193.1154,-104.31643)"
       inkscape:export-filename="C:\wamp\www\bootpanel\app\webroot\img\branding\bootpanel.png"
       inkscape:export-xdpi="89.989998"
       inkscape:export-ydpi="89.989998">
      <g
         transform="translate(108.57143,80)"
         id="g3849">
        <path
           id="path3830"
           style="fill:#000000;fill-opacity:1;stroke:none"
           d="m -2409.2424,881.02027 c -0.2044,7.12696 -3.3294,17.59181 0.671,19.91334 4.4171,0.3942 7.6218,-2.84893 10.7143,-6.42857 l 5,-22.14286 c -5.9516,-0.54252 -11.065,4.7818 -16.3853,8.65809 z M -2445,867.36218 l 12.8571,7.85715 c 0.2241,13.96331 -1.2025,18.0228 -2.8571,20.71428 -11.3515,-7.51927 -13.8777,-17.24485 -10,-28.57143 z m 45,-76.42857 c 0.082,7.38095 -3.5713,14.76191 0.7143,22.14286 6.6667,5.28202 13.3333,-3.94205 20,-7.14286 L -2380,782.36218 z m -34.2857,-17.14286 c -9.654,7.85714 -8.6992,15.71429 -7.1429,23.57143 5.3153,8.284 10.5444,16.71176 21.4286,15.71429 l 2.1429,-23.57143 z m 27.8571,67.14286 0,13.57143 c 6.4286,0.60419 12.8572,-2.34878 19.2857,-6.42857 l 0,-13.57143 c -6.1657,0.30316 -12.453,1.45675 -19.2857,6.42857 z m -35,-17.14286 c -4.2995,4.99725 -4.6045,10.79338 -5.7143,16.42858 5.1117,5.9319 11.4807,10.29208 19.2858,12.85714 l 2.8571,-15 c -5.3945,-5.17042 -9.8402,-15.08482 -16.4286,-14.28572 z m -17.8571,71.42858 c 26.2017,34.41191 57.7341,23.89199 72.8571,7.85714 l 58.5715,34.28571 c -62.5802,80.20982 -173.6817,38.65101 -195,-20.71428 z m 83.5714,-23.57143 -0.7143,18.57143 57.1429,32.14285 13.5714,-30.71428 z m -153.5714,-12.85715 1.4286,35.71429 65.7142,-15.71429 -1.4285,-20.71428 z m 5,-49.28571 -4.2857,29.28571 66.4285,2.14286 4.2858,-24.28571 z m 156.4286,15 -3.5715,27.85714 67.1429,17.14286 6.4286,-30 z m 6.4285,-58.57143 -2.8571,42.14286 66.4286,11.42857 5,-46.42857 z m -146.4285,-22.85714 -14.2858,45.71428 67.8572,4.28572 3.5714,-41.42857 z m 98.9718,-419.03937 0,22.22335 c 8.4973,1.00401 24.7942,13.79047 38.1512,21.92749 -6.9916,-16.90898 -13.7204,-35.50258 -38.1512,-44.15084 z m -50.5077,53.59936 c 11.1683,-11.38402 22.3288,-22.77957 35.3554,-31.37601 l -5.0508,-19.1929 c -28.2537,14.57055 -28.0663,32.72245 -30.3046,50.56891 z m 47.4772,188.83725 4.0406,28.28427 -19.1929,18.18274 -15.1523,-26.26396 z m 19.1929,-4.04061 0,31.31473 35.3554,28.28427 7.071,-31.31473 z m -21.2132,-60.60916 3.0305,33.33504 -39.396,32.32488 -7.071,-29.29442 z m 16.1625,-2.0203 1.0101,34.34518 51.5178,27.27412 4.0406,-33.33503 z m -20.2031,-56.56854 2.0203,36.36549 -48.4873,35.35534 -8.0812,-29.29443 z m 17.1726,-6.06092 2.0203,32.32488 56.5685,36.36549 -3.0304,-40.4061 z m -23.2335,-60.60915 3.0304,37.37564 c -14.8414,9.92025 -34.1401,27.26909 -51.5177,41.41626 l 4.0406,-42.42641 z m 17.1726,-1.01015 4.0406,34.34518 53.5381,27.27412 c -1.9694,-15.05976 -7.9468,-29.31793 -14.6219,-43.43656 z m 70.7107,25.25381 -15.1523,-39.39595 55.5584,-27.27412 15.1522,41.41626 c -19.004,7.61022 -39.1861,13.25712 -55.5583,25.25381 z m 5.0507,22.22335 5.0508,35.35534 62.6294,-13.13198 c -0.4343,-14.14214 -2.8875,-28.28427 -8.0812,-42.42641 z m 6.0609,59.59901 1.0102,30.30457 65.6599,-1.01015 c 1.7041,-13.80542 -0.013,-27.61084 -1.0101,-41.41626 z m -4.0406,86.87311 65.6599,11.11168 8.0813,-45.45686 -69.7006,-1.01016 z m -5.0507,26.26397 -11.1117,34.34519 65.6599,34.34518 13.132,-50.50762 z m -191.929,24.24366 21.2132,41.41626 63.6396,-36.3655 -18.1828,-35.35534 z m -25.2538,-74.75129 16.1624,48.48733 68.6904,-24.24367 -15.1523,-37.37564 z m -8.0813,-73.74113 2.0203,48.48732 c 23.2336,0.22298 46.4671,0.0948 69.7006,-8.08122 l -3.0305,-37.37565 z m 6.061,-72.73099 -7.0711,45.45687 68.6904,8.08122 c -0.067,-12.45855 2.2966,-24.9171 5.0507,-37.37565 z m 17.1726,-70.71067 64.6497,25.25381 -12.1218,35.35534 -64.6498,-17.17259 z m 9.0913,-22.22336 64.6498,28.28427 c 24.4857,-47.9459 77.1302,-32.32065 97.9848,9.09138 l 58.5888,-33.33504 c -64.1197,-121.66636 -174.1583,-109.22308 -221.2234,-4.04061 z"
           inkscape:connector-curvature="0" />
        <text
           xml:space="preserve"
           style="font-size:726.21905518px;font-style:normal;font-variant:normal;font-weight:normal;font-stretch:normal;line-height:125%;letter-spacing:0px;word-spacing:0px;fill:#000000;fill-opacity:1;stroke:none;font-family:Pristina;-inkscape-font-specification:Pristina"
           x="-2251.3562"
           y="964.32062"
           id="text3833"
           sodipodi:linespacing="125%"><tspan
             sodipodi:role="line"
             id="tspan3835"
             x="-2251.3562"
             y="964.32062"
             style="font-style:normal;font-variant:normal;font-weight:normal;font-stretch:normal;font-family:Pristina;-inkscape-font-specification:Pristina">oot</tspan></text>
      </g>
      <text
         sodipodi:linespacing="125%"
         id="text3837"
         y="1412.8029"
         x="-2491.9536"
         style="font-size:368.65359497px;font-style:normal;font-variant:normal;font-weight:normal;font-stretch:normal;line-height:125%;letter-spacing:0px;word-spacing:0px;fill:#000000;fill-opacity:1;stroke:none;font-family:Quicksand;-inkscape-font-specification:Quicksand"
         xml:space="preserve"><tspan
           style="font-style:normal;font-variant:normal;font-weight:normal;font-stretch:normal;font-family:Quicksand;-inkscape-font-specification:Quicksand"
           y="1412.8029"
           x="-2491.9536"
           id="tspan3839"
           sodipodi:role="line">PANEL</tspan></text>
    </g>
    <flowRoot
       xml:space="preserve"
       id="flowRoot3841"
       style="font-size:40px;font-style:normal;font-weight:normal;line-height:125%;letter-spacing:0px;word-spacing:0px;fill:#000000;fill-opacity:1;stroke:none;font-family:Sans"><flowRegion
         id="flowRegion3843"><rect
           id="rect3845"
           width="1377.1428"
           height="1005.7143"
           x="-2657.1428"
           y="0.93361175" /></flowRegion><flowPara
         id="flowPara3847" /></flowRoot>    <g
       id="g3934"
       transform="matrix(0.87668948,0.4810567,-0.4810567,0.87668948,1046.3854,415.58952)">
      <path
         id="path3830-2"
         style="fill:#280b0b;fill-opacity:1;stroke:none"
         d="m -1480.6431,1295.4921 c -0.2347,8.1894 -3.8259,20.2143 0.771,22.882 5.0755,0.453 8.7579,-3.2738 12.3113,-7.387 l 5.7455,-25.4438 c -6.8389,-0.6235 -12.7145,5.4946 -18.8278,9.9488 z m -41.0886,-15.6942 14.774,9.0283 c 0.2567,16.045 -1.3817,20.7099 -3.2833,23.8025 -13.0435,-8.6403 -15.9463,-19.8157 -11.4907,-32.8308 z m 51.7085,-87.8229 c 0.095,8.4813 -4.1037,16.9631 0.8209,25.4443 7.6608,6.0694 15.3212,-4.5298 22.9817,-8.2078 l -0.8208,-27.0854 z m -39.3969,-19.6983 c -11.0933,9.0285 -9.996,18.0571 -8.2077,27.0853 6.1079,9.5192 12.1165,19.2032 24.6232,18.0573 l 2.4625,-27.0855 z m 32.0099,77.1525 0,15.5947 c 7.387,0.6944 14.774,-2.6989 22.161,-7.387 l 0,-15.5946 c -7.0848,0.3482 -14.3095,1.6739 -22.161,7.3869 z m -40.2176,-19.6985 c -4.9404,5.7421 -5.2909,12.4025 -6.5663,18.8777 5.8737,6.8161 13.1924,11.8265 22.161,14.774 l 3.2833,-17.2365 c -6.1989,-5.9411 -11.3075,-17.3335 -18.878,-16.4152 z m -20.5194,82.0771 c 30.108,39.5423 66.3412,27.4539 83.7189,9.0288 l 67.3034,39.3969 c -71.9097,92.1674 -199.5743,44.4131 -224.0709,-23.8026 z m 96.0304,-27.0853 -0.8209,21.3401 65.6619,36.9345 15.5949,-35.2929 z m -176.4658,-14.774 1.6416,41.0386 75.511,-18.0569 -1.6418,-23.8026 z m 5.7452,-56.6333 -4.9245,33.6516 76.3319,2.4624 4.9245,-27.9062 z m 179.7492,17.2364 -4.1037,32.0099 77.1522,19.6985 7.3873,-34.4725 z m 7.387,-67.3032 -3.283,48.4252 76.3318,13.1326 5.7453,-53.3504 z m -168.2582,-26.265 -16.4155,52.5295 77.9734,4.9246 4.1037,-47.6048 z m 113.7265,-481.50971 0,25.5362 c 9.764,1.15369 28.4906,15.84625 43.8386,25.19635 -8.0336,-19.42975 -15.7656,-40.79515 -43.8386,-50.73255 z m -58.0375,61.58976 c 12.8332,-13.081 25.6577,-26.17555 40.6262,-36.05356 l -5.8037,-22.05423 c -32.4659,16.74293 -32.2503,37.60096 -34.8225,58.10779 z m 54.5552,216.98938 4.6429,32.50083 -22.0542,20.89359 -17.4113,-30.17961 z m 22.0542,-4.64309 0,35.98315 40.6261,32.50084 8.1254,-35.98316 z m -24.3756,-69.64507 3.4823,38.30485 -45.2695,37.14392 -8.1249,-33.6616 z m 18.572,-2.32123 1.1606,39.46547 59.198,31.34022 4.6431,-38.30486 z m -23.2149,-65.00167 2.3213,41.7867 -55.7158,40.62624 -9.286,-33.66193 z m 19.7325,-6.96464 2.3217,37.14377 65.0016,41.78686 -3.4823,-46.42979 z m -26.6972,-69.64472 3.4823,42.94745 c -17.0541,11.39937 -39.2298,31.33436 -59.1981,47.59086 l 4.6431,-48.7515 z m 19.733,-1.16065 4.6429,39.46512 61.5194,31.34025 c -2.263,-17.30496 -9.1316,-33.68867 -16.8016,-49.91216 z m 81.2523,29.01852 -17.4112,-45.26912 63.841,-31.34021 17.4108,47.59081 c -21.8369,8.74449 -45.0278,15.23329 -63.8406,29.01852 z m 5.8036,25.53652 5.8037,40.62576 71.9663,-15.08956 c -0.4993,-16.25018 -3.3181,-32.50084 -9.286,-48.75141 z m 6.9643,68.48414 1.1606,34.82206 75.4486,-1.16061 c 1.9581,-15.86352 0,-31.72704 -1.1606,-47.5904 z m -4.6429,99.82421 75.4486,12.76786 9.286,-52.23349 -80.0917,-1.16061 z m -5.8038,30.17913 -12.7683,39.46542 75.4488,39.4655 15.0896,-58.03734 z m -220.5419,27.8579 24.3759,47.59072 73.1269,-41.7867 -20.8936,-40.62624 z m -29.0186,-85.89525 18.5719,55.71596 78.9306,-27.85774 -17.4109,-42.94795 z m -9.286,-84.73433 2.3214,55.71565 c 26.6971,0.25667 53.3944,0.11057 80.0916,-9.28586 l -3.4824,-42.94747 z m 6.9646,-83.57399 -8.1252,52.23377 78.9306,9.28602 c -0.077,-14.31608 2.6392,-28.63185 5.8037,-42.94751 z m 19.7327,-81.25195 74.2877,29.01854 -13.929,40.62614 -74.2876,-19.73256 z m 10.4466,-25.53656 74.2876,32.50085 c 28.1362,-55.09363 88.629,-37.13906 112.5925,10.44662 l 67.3234,-38.30449 c -73.6787,-139.80442 -200.1221,-125.50596 -254.2035,-4.64298 z"
         inkscape:connector-curvature="0" />
      <text
         transform="matrix(0.99146464,0.13037584,-0.13037584,0.99146464,0,0)"
         xml:space="preserve"
         style="font-size:80.31209564px;font-style:normal;font-variant:normal;font-weight:normal;font-stretch:normal;line-height:125%;letter-spacing:0px;word-spacing:0px;fill:#803300;fill-opacity:1;stroke:none;font-family:Quicksand;-inkscape-font-specification:Quicksand"
         x="-1435.8424"
         y="1321.3806"
         id="text3837-5"
         sodipodi:linespacing="125%"><tspan
           sodipodi:role="line"
           id="tspan3839-8"
           x="-1435.8424"
           y="1321.3806"
           style="font-style:normal;font-variant:normal;font-weight:bold;font-stretch:normal;fill:#803300;font-family:Quicksand;-inkscape-font-specification:Quicksand Bold">PANEL</tspan></text>
      <text
         transform="matrix(0.98992626,0.14158391,-0.14158391,0.98992626,0,0)"
         xml:space="preserve"
         style="font-size:54.82554245px;font-style:normal;font-variant:normal;font-weight:normal;font-stretch:normal;line-height:125%;letter-spacing:0px;word-spacing:0px;fill:#784421;fill-opacity:1;stroke:none;font-family:Quicksand;-inkscape-font-specification:Quicksand"
         x="-1368.6079"
         y="1269.6519"
         id="text3837-5-6"
         sodipodi:linespacing="125%"><tspan
           sodipodi:role="line"
           id="tspan3839-8-2"
           x="-1368.6079"
           y="1269.6519"
           style="font-style:normal;font-variant:normal;font-weight:bold;font-stretch:normal;fill:#784421;font-family:Arial;-inkscape-font-specification:Arial Bold">BOOT</tspan></text>
    </g>
    <g
       id="g3934-6"
       transform="matrix(-0.85177192,-0.52391277,-0.52391277,0.85177192,-2795.767,-562.4299)">
      <path
         id="path3830-2-5"
         style="fill:#280b0b;fill-opacity:1;stroke:none"
         d="m -1480.6431,1295.4921 c -0.2347,8.1894 -3.8259,20.2143 0.771,22.882 5.0755,0.453 8.7579,-3.2738 12.3113,-7.387 l 5.7455,-25.4438 c -6.8389,-0.6235 -12.7145,5.4946 -18.8278,9.9488 z m -41.0886,-15.6942 14.774,9.0283 c 0.2567,16.045 -1.3817,20.7099 -3.2833,23.8025 -13.0435,-8.6403 -15.9463,-19.8157 -11.4907,-32.8308 z m 51.7085,-87.8229 c 0.095,8.4813 -4.1037,16.9631 0.8209,25.4443 7.6608,6.0694 15.3212,-4.5298 22.9817,-8.2078 l -0.8208,-27.0854 z m -39.3969,-19.6983 c -11.0933,9.0285 -9.996,18.0571 -8.2077,27.0853 6.1079,9.5192 12.1165,19.2032 24.6232,18.0573 l 2.4625,-27.0855 z m 32.0099,77.1525 0,15.5947 c 7.387,0.6944 14.774,-2.6989 22.161,-7.387 l 0,-15.5946 c -7.0848,0.3482 -14.3095,1.6739 -22.161,7.3869 z m -40.2176,-19.6985 c -4.9404,5.7421 -5.2909,12.4025 -6.5663,18.8777 5.8737,6.8161 13.1924,11.8265 22.161,14.774 l 3.2833,-17.2365 c -6.1989,-5.9411 -11.3075,-17.3335 -18.878,-16.4152 z m -20.5194,82.0771 c 30.108,39.5423 66.3412,27.4539 83.7189,9.0288 l 67.3034,39.3969 c -71.9097,92.1674 -199.5743,44.4131 -224.0709,-23.8026 z m 96.0304,-27.0853 -0.8209,21.3401 65.6619,36.9345 15.5949,-35.2929 z m -176.4658,-14.774 1.6416,41.0386 75.511,-18.0569 -1.6418,-23.8026 z m 5.7452,-56.6333 -4.9245,33.6516 76.3319,2.4624 4.9245,-27.9062 z m 179.7492,17.2364 -4.1037,32.0099 77.1522,19.6985 7.3873,-34.4725 z m 7.387,-67.3032 -3.283,48.4252 76.3318,13.1326 5.7453,-53.3504 z m -168.2582,-26.265 -16.4155,52.5295 77.9734,4.9246 4.1037,-47.6048 z m 113.7265,-481.50971 0,25.5362 c 9.764,1.15369 28.4906,15.84625 43.8386,25.19635 -8.0336,-19.42975 -15.7656,-40.79515 -43.8386,-50.73255 z m -58.0375,61.58976 c 12.8332,-13.081 25.6577,-26.17555 40.6262,-36.05356 l -5.8037,-22.05423 c -32.4659,16.74293 -32.2503,37.60096 -34.8225,58.10779 z m 54.5552,216.98938 4.6429,32.50083 -22.0542,20.89359 -17.4113,-30.17961 z m 22.0542,-4.64309 0,35.98315 40.6261,32.50084 8.1254,-35.98316 z m -24.3756,-69.64507 3.4823,38.30485 -45.2695,37.14392 -8.1249,-33.6616 z m 18.572,-2.32123 1.1606,39.46547 59.198,31.34022 4.6431,-38.30486 z m -23.2149,-65.00167 2.3213,41.7867 -55.7158,40.62624 -9.286,-33.66193 z m 19.7325,-6.96464 2.3217,37.14377 65.0016,41.78686 -3.4823,-46.42979 z m -26.6972,-69.64472 3.4823,42.94745 c -17.0541,11.39937 -39.2298,31.33436 -59.1981,47.59086 l 4.6431,-48.7515 z m 19.733,-1.16065 4.6429,39.46512 61.5194,31.34025 c -2.263,-17.30496 -9.1316,-33.68867 -16.8016,-49.91216 z m 81.2523,29.01852 -17.4112,-45.26912 63.841,-31.34021 17.4108,47.59081 c -21.8369,8.74449 -45.0278,15.23329 -63.8406,29.01852 z m 5.8036,25.53652 5.8037,40.62576 71.9663,-15.08956 c -0.4993,-16.25018 -3.3181,-32.50084 -9.286,-48.75141 z m 6.9643,68.48414 1.1606,34.82206 75.4486,-1.16061 c 1.9581,-15.86352 0,-31.72704 -1.1606,-47.5904 z m -4.6429,99.82421 75.4486,12.76786 9.286,-52.23349 -80.0917,-1.16061 z m -5.8038,30.17913 -12.7683,39.46542 75.4488,39.4655 15.0896,-58.03734 z m -220.5419,27.8579 24.3759,47.59072 73.1269,-41.7867 -20.8936,-40.62624 z m -29.0186,-85.89525 18.5719,55.71596 78.9306,-27.85774 -17.4109,-42.94795 z m -9.286,-84.73433 2.3214,55.71565 c 26.6971,0.25667 53.3944,0.11057 80.0916,-9.28586 l -3.4824,-42.94747 z m 6.9646,-83.57399 -8.1252,52.23377 78.9306,9.28602 c -0.077,-14.31608 2.6392,-28.63185 5.8037,-42.94751 z m 19.7327,-81.25195 74.2877,29.01854 -13.929,40.62614 -74.2876,-19.73256 z m 10.4466,-25.53656 74.2876,32.50085 c 28.1362,-55.09363 88.629,-37.13906 112.5925,10.44662 l 67.3234,-38.30449 c -73.6787,-139.80442 -200.1221,-125.50596 -254.2035,-4.64298 z"
         inkscape:connector-curvature="0" />
      <text
         transform="matrix(-0.99171549,-0.12845384,-0.12845384,0.99171549,0,0)"
         xml:space="preserve"
         style="font-size:80.31209564px;font-style:normal;font-variant:normal;font-weight:normal;font-stretch:normal;line-height:125%;letter-spacing:0px;word-spacing:0px;fill:#803300;fill-opacity:1;stroke:none;font-family:Quicksand;-inkscape-font-specification:Quicksand"
         x="1178.2368"
         y="1318.8472"
         id="text3837-5-3"
         sodipodi:linespacing="125%"><tspan
           sodipodi:role="line"
           id="tspan3839-8-9"
           x="1178.2368"
           y="1318.8472"
           style="font-style:normal;font-variant:normal;font-weight:bold;font-stretch:normal;fill:#803300;font-family:Quicksand;-inkscape-font-specification:Quicksand Bold">PANEL</tspan></text>
      <text
         transform="matrix(-0.99301738,-0.11796816,-0.11796816,0.99301738,0,0)"
         xml:space="preserve"
         style="font-size:54.82554245px;font-style:normal;font-variant:normal;font-weight:normal;font-stretch:normal;line-height:125%;letter-spacing:0px;word-spacing:0px;fill:#784421;fill-opacity:1;stroke:none;font-family:Quicksand;-inkscape-font-specification:Quicksand"
         x="1236.7753"
         y="1238.6232"
         id="text3837-5-6-2"
         sodipodi:linespacing="125%"><tspan
           sodipodi:role="line"
           id="tspan3839-8-2-4"
           x="1236.7753"
           y="1238.6232"
           style="font-style:normal;font-variant:normal;font-weight:bold;font-stretch:normal;fill:#784421;font-family:Arial;-inkscape-font-specification:Arial Bold">BOOT</tspan></text>
    </g>
    <g
       id="g3934-61"
       transform="matrix(0.2820384,0.15476,-0.15476,0.2820384,700.28081,879.69631)">
      <path
         id="path3830-2-8"
         style="fill:#280b0b;fill-opacity:1;stroke:none"
         d="m -1480.6431,1295.4921 c -0.2347,8.1894 -3.8259,20.2143 0.771,22.882 5.0755,0.453 8.7579,-3.2738 12.3113,-7.387 l 5.7455,-25.4438 c -6.8389,-0.6235 -12.7145,5.4946 -18.8278,9.9488 z m -41.0886,-15.6942 14.774,9.0283 c 0.2567,16.045 -1.3817,20.7099 -3.2833,23.8025 -13.0435,-8.6403 -15.9463,-19.8157 -11.4907,-32.8308 z m 51.7085,-87.8229 c 0.095,8.4813 -4.1037,16.9631 0.8209,25.4443 7.6608,6.0694 15.3212,-4.5298 22.9817,-8.2078 l -0.8208,-27.0854 z m -39.3969,-19.6983 c -11.0933,9.0285 -9.996,18.0571 -8.2077,27.0853 6.1079,9.5192 12.1165,19.2032 24.6232,18.0573 l 2.4625,-27.0855 z m 32.0099,77.1525 0,15.5947 c 7.387,0.6944 14.774,-2.6989 22.161,-7.387 l 0,-15.5946 c -7.0848,0.3482 -14.3095,1.6739 -22.161,7.3869 z m -40.2176,-19.6985 c -4.9404,5.7421 -5.2909,12.4025 -6.5663,18.8777 5.8737,6.8161 13.1924,11.8265 22.161,14.774 l 3.2833,-17.2365 c -6.1989,-5.9411 -11.3075,-17.3335 -18.878,-16.4152 z m -20.5194,82.0771 c 30.108,39.5423 66.3412,27.4539 83.7189,9.0288 l 67.3034,39.3969 c -71.9097,92.1674 -199.5743,44.4131 -224.0709,-23.8026 z m 96.0304,-27.0853 -0.8209,21.3401 65.6619,36.9345 15.5949,-35.2929 z m -176.4658,-14.774 1.6416,41.0386 75.511,-18.0569 -1.6418,-23.8026 z m 5.7452,-56.6333 -4.9245,33.6516 76.3319,2.4624 4.9245,-27.9062 z m 179.7492,17.2364 -4.1037,32.0099 77.1522,19.6985 7.3873,-34.4725 z m 7.387,-67.3032 -3.283,48.4252 76.3318,13.1326 5.7453,-53.3504 z m -168.2582,-26.265 -16.4155,52.5295 77.9734,4.9246 4.1037,-47.6048 z m 113.7265,-481.50971 0,25.5362 c 9.764,1.15369 28.4906,15.84625 43.8386,25.19635 -8.0336,-19.42975 -15.7656,-40.79515 -43.8386,-50.73255 z m -58.0375,61.58976 c 12.8332,-13.081 25.6577,-26.17555 40.6262,-36.05356 l -5.8037,-22.05423 c -32.4659,16.74293 -32.2503,37.60096 -34.8225,58.10779 z m 54.5552,216.98938 4.6429,32.50083 -22.0542,20.89359 -17.4113,-30.17961 z m 22.0542,-4.64309 0,35.98315 40.6261,32.50084 8.1254,-35.98316 z m -24.3756,-69.64507 3.4823,38.30485 -45.2695,37.14392 -8.1249,-33.6616 z m 18.572,-2.32123 1.1606,39.46547 59.198,31.34022 4.6431,-38.30486 z m -23.2149,-65.00167 2.3213,41.7867 -55.7158,40.62624 -9.286,-33.66193 z m 19.7325,-6.96464 2.3217,37.14377 65.0016,41.78686 -3.4823,-46.42979 z m -26.6972,-69.64472 3.4823,42.94745 c -17.0541,11.39937 -39.2298,31.33436 -59.1981,47.59086 l 4.6431,-48.7515 z m 19.733,-1.16065 4.6429,39.46512 61.5194,31.34025 c -2.263,-17.30496 -9.1316,-33.68867 -16.8016,-49.91216 z m 81.2523,29.01852 -17.4112,-45.26912 63.841,-31.34021 17.4108,47.59081 c -21.8369,8.74449 -45.0278,15.23329 -63.8406,29.01852 z m 5.8036,25.53652 5.8037,40.62576 71.9663,-15.08956 c -0.4993,-16.25018 -3.3181,-32.50084 -9.286,-48.75141 z m 6.9643,68.48414 1.1606,34.82206 75.4486,-1.16061 c 1.9581,-15.86352 0,-31.72704 -1.1606,-47.5904 z m -4.6429,99.82421 75.4486,12.76786 9.286,-52.23349 -80.0917,-1.16061 z m -5.8038,30.17913 -12.7683,39.46542 75.4488,39.4655 15.0896,-58.03734 z m -220.5419,27.8579 24.3759,47.59072 73.1269,-41.7867 -20.8936,-40.62624 z m -29.0186,-85.89525 18.5719,55.71596 78.9306,-27.85774 -17.4109,-42.94795 z m -9.286,-84.73433 2.3214,55.71565 c 26.6971,0.25667 53.3944,0.11057 80.0916,-9.28586 l -3.4824,-42.94747 z m 6.9646,-83.57399 -8.1252,52.23377 78.9306,9.28602 c -0.077,-14.31608 2.6392,-28.63185 5.8037,-42.94751 z m 19.7327,-81.25195 74.2877,29.01854 -13.929,40.62614 -74.2876,-19.73256 z m 10.4466,-25.53656 74.2876,32.50085 c 28.1362,-55.09363 88.629,-37.13906 112.5925,10.44662 l 67.3234,-38.30449 c -73.6787,-139.80442 -200.1221,-125.50596 -254.2035,-4.64298 z"
         inkscape:connector-curvature="0" />
    </g>
  </g>
</svg>
